{
    "payu": {
        "PAYU_MERCHANT_KEY": "gtKFFx",
        "PAYU_SALT": "eCwWELxi",
        "PAYU_BASE_URL": "https://test.payu.in"
    },
    "paytm": {
        "PAYTM_DOMAIN": "secure.paytm.in",
        "PAYTM_MERCHANT_MID": "LIMBan23559779675005",
        "PAYTM_MERCHANT_KEY": "L0AQJC!Meq4fOpyc",
        "PAYTM_MERCHANT_WEBSITE": "LIMBanWEB",
        "PAYTM_INDUSTRY_TYPE_ID": "Retail109",
        "PAYTM_CHANNEL_ID": "WEB"
    },
    "LOGGLY_URL": "http://logs-01.loggly.com/inputs/c7ed9e19-3b8c-4856-a515-10fdb1a9f386/",
    "time": {
        "TODAY_DELIVERY_TIME": 19
    },
    "scripts_config": {
        "ZEN_DESK": true,
        "GOOGLE_ANALYTICS": true,
        "GOOGLE_MARKETING": true,
        "HOTJAR": true
    },
    "email": {
        "SENDGRID_HOST": "smtp.sendgrid.net",
        "SENDGRID_USERNAME": "shoaibmerchant",
        "SENDGRID_PASSWORD": "8FM6}urJy:fB7)t"
    },
    "sms": {
        "MSG91_SMS_PASSWORD": "151656AD2jeC4Rb5910178f",
        "MSG91_SMS_SENDERID": "CAKWEB",
        "MSG91_SMS_ROUTE": "4",
        "MSG91_SMS_URL": "https://control.msg91.com/api/sendhttp.php"
    },
    "server": {
        "MAINTENANCE_MODE": false,
        "MAINTENANCE_MODE_TEMPLATE": "<!doctype html><title>CakeWeb Site Maintenance</title><style>body{text-align: center; padding: 150px;}h1{font-size: 50px;}body{font: 20px Helvetica, sans-serif; color: #333;}article{display: block; text-align: left; width: 650px; margin: 0 auto;}a{color: #dc8100; text-decoration: none;}a:hover{color: #333; text-decoration: none;}</style><article> <h1>We&rsquo;ll be back soon!</h1> <div> <p>Sorry for the inconvenience but we&rsquo;re performing some maintenance at the moment. If you need to you can always <a href='mailto:info@cakeweb.in'>contact us</a>, otherwise we&rsquo;ll be back online shortly!</p><p>&mdash; The Team</p></div></article>",
        "MAINTENANCE_MODE_ALLOWED_IPS": [
            "::1",
            "203.109.69.97"
        ]
    }
}
